bin,pt_center,pt_low,pt_high,A_4mu,A_4mu_error_low,A_4mu_error_high
1,0.5,0.0,1.0,0.0,0.0,0.0
2,1.5,1.0,2.0,0.0,0.0,0.0
3,2.5,2.0,3.0,0.0,0.0,0.0
4,3.5,3.0,4.0,0.0,0.0,0.0
6,5.5,5.0,6.0,0.0,0.0,0.0016844968971500038
7,6.5,6.0,7.0,0.0,0.0,0.0017551579485586837
8,7.5,7.0,8.0,0.0,0.0,0.0017174978680596926
9,8.5,8.0,9.0,0.0,0.0,0.0017980117881475364
10,9.5,9.0,10.0,0.0,0.0,0.001667711759956043
11,10.5,10.0,11.0,0.0,0.0,0.001785803207889188
12,11.5,11.0,12.0,0.0,0.0,0.0016875851076673016
13,12.5,12.0,13.0,0.0,0.0,0.0017754699051131789
14,13.5,13.0,14.0,0.0,0.0,0.001639493815053808
15,14.5,14.0,15.0,0.0,0.0,0.001693795623650395
16,15.5,15.0,16.0,0.007655502392344498,0.0026449251121149608,0.003753670786348113
17,16.5,16.0,17.0,0.010377358490566037,0.00307290809323696,0.004136205150433501
18,17.5,17.0,18.0,0.011183597390493943,0.003173872355214883,0.0042167738196504274
19,18.5,18.0,19.0,0.016408386508659983,0.0038127901688599242,0.00479884711072694
20,19.5,19.0,20.0,0.04072790294627383,0.005830468218298718,0.006685358080112266
21,20.5,20.0,21.0,0.03934987168520103,0.0056969388693706505,0.006543991066480029
22,21.5,21.0,22.0,0.04275092936802974,0.006181362683573596,0.007094900554692279
23,22.5,22.0,23.0,0.05850091407678245,0.007127108443943944,0.00798582545659813
24,23.5,23.0,24.0,0.06355140186915888,0.0074953415045167435,0.008361828552581482
25,24.5,24.0,25.0,0.0760180995475113,0.008022081739525247,0.008832630950390066
26,25.5,25.0,26.0,0.0787037037037037,0.008246768405009888,0.009070618071847072
27,26.5,26.0,27.0,0.10973282442748092,0.009741115884576546,0.010522284131752574
28,27.5,27.0,28.0,0.11423220973782772,0.009822725606915605,0.010579483045584037
29,28.5,28.0,29.0,0.11726078799249531,0.009946419563322928,0.010698284226621307
30,29.5,29.0,30.0,0.12332439678284182,0.009923561983610427,0.010627043937860375
31,31.0,30.0,32.0,0.13574660633484162,0.00734183367049962,0.0076816240888019915
32,33.0,32.0,34.0,0.13287671232876713,0.007308389714787478,0.007654126488202684
33,35.0,34.0,36.0,0.1507177033492823,0.00789216511888069,0.008236529966983597
34,37.0,36.0,38.0,0.16453382084095064,0.007996150961053855,0.008311550379055344
35,39.0,38.0,40.0,0.17449027975343764,0.008341583529185376,0.008659037757392657
36,42.5,40.0,45.0,0.17979197622585438,0.005265595631598702,0.0053866414453740685
37,47.5,45.0,50.0,0.16681843015844108,0.005060194253018596,0.005183733384056227
38,52.5,50.0,55.0,0.16785312851255152,0.005145418542767455,0.0052721299765184915
39,62.5,55.0,70.0,0.1516382095062298,0.003459226419088246,0.0035243873020624483
40,85.0,70.0,100.0,0.1516382095062298,0.003459226419088246,0.0035243873020624483
